ITEM TYPE   = Item
DATE FORMAT = %d/%m/%Y
!~ItemID~RevID~Owner~Group~CreateDate~RM:project_id~RMD:date_valid_from
BomAssy1~A~williams~designers~16/03/1997~Project X~01/04/1997
BomChild1~A~williams~designers~16/03/1997~Project X~01/04/1997
BomChild2~A~williams~designers~16/03/1997~Project X~01/04/1997
BomChild3~A~williams~designers~16/03/1997~Project X~01/04/1997
