 Volume in drive E is Caddy
 Volume Serial Number is BE39-418F

 Directory of E:\Unified.support.issues\GIT-BitBucket\NX\KVERNELAND\BNL_NX_PERIMETER_AREA

08/29/2016  05:01 PM    <DIR>          .
08/29/2016  05:01 PM    <DIR>          ..
08/29/2016  05:01 PM                 0 dir.txt
08/29/2016  04:57 PM    <DIR>          documents
08/29/2016  01:38 PM           145,961 ugii_env_ug.dat
11/04/2015  03:39 PM           145,883 ugii_env_ug.dat.org
08/29/2016  05:00 PM    <DIR>          user_dir_nx
               3 File(s)        291,844 bytes

 Directory of E:\Unified.support.issues\GIT-BitBucket\NX\KVERNELAND\BNL_NX_PERIMETER_AREA\documents

08/29/2016  04:57 PM    <DIR>          .
08/29/2016  04:57 PM    <DIR>          ..
08/29/2016  04:57 PM           124,369 test Result.docx
               1 File(s)        124,369 bytes

 Directory of E:\Unified.support.issues\GIT-BitBucket\NX\KVERNELAND\BNL_NX_PERIMETER_AREA\user_dir_nx

08/29/2016  05:00 PM    <DIR>          .
08/29/2016  05:00 PM    <DIR>          ..
08/29/2016  05:00 PM    <DIR>          application
08/29/2016  05:00 PM    <DIR>          startup
               0 File(s)              0 bytes

 Directory of E:\Unified.support.issues\GIT-BitBucket\NX\KVERNELAND\BNL_NX_PERIMETER_AREA\user_dir_nx\application

08/29/2016  05:00 PM    <DIR>          .
08/29/2016  05:00 PM    <DIR>          ..
01/23/2014  02:29 PM            20,846 perimeter_area.grx
               1 File(s)         20,846 bytes

 Directory of E:\Unified.support.issues\GIT-BitBucket\NX\KVERNELAND\BNL_NX_PERIMETER_AREA\user_dir_nx\startup

08/29/2016  05:00 PM    <DIR>          .
08/29/2016  05:00 PM    <DIR>          ..
08/29/2016  04:59 PM                 0 bnl_perimeter_area_x64.dll
01/21/2014  03:03 PM               285 face.men
01/21/2014  03:03 PM               151 face.tbr
               3 File(s)            436 bytes

     Total Files Listed:
               8 File(s)        437,495 bytes
              14 Dir(s)  92,118,945,792 bytes free
